{
  "project_info": {
    "project_number": "547746501062",
    "firebase_url": "https://authentic-ether-240113.firebaseio.com",
    "project_id": "authentic-ether-240113",
    "storage_bucket": "authentic-ether-240113.appspot.com"
  },
  "client": [
    {
      "client_info": {
        "mobilesdk_app_id": "1:547746501062:android:98c70ca4162fcaf3",
        "android_client_info": {
          "package_name": "com.pakupaku.deliver"
        }
      },
      "oauth_client": [
        {
          "client_id": "547746501062-msdjobhdac1etg897t4oc3o691t3c60n.apps.googleusercontent.com",
          "client_type": 1,
          "android_info": {
            "package_name": "com.pakupaku.deliver",
            "certificate_hash": "d874e1f917819b2c5f95246532117598f75604c7"
          }
        },
        {
          "client_id": "547746501062-nhti0qasr3tct0n9rgimvl1o8eoh1cb2.apps.googleusercontent.com",
          "client_type": 1,
          "android_info": {
            "package_name": "com.pakupaku.deliver",
            "certificate_hash": "8cf37960e11bc0f20d54fc52f14aae89f6bf6937"
          }
        },
        {
          "client_id": "547746501062-3r9mutl5mvjno7q962bruj4bbdbmmnl3.apps.googleusercontent.com",
          "client_type": 1,
          "android_info": {
            "package_name": "com.pakupaku.deliver",
            "certificate_hash": "2c4d991b9ab437d97503bd581e638172ca0fc0a4"
          }
        },
        {
          "client_id": "547746501062-6f85nl7kketfebgkdf9l4t9sr8d61vg7.apps.googleusercontent.com",
          "client_type": 1,
          "android_info": {
            "package_name": "com.pakupaku.deliver",
            "certificate_hash": "bfc5cfc24e1ba6730b73875c498453c7ce6c244b"
          }
        },
        {
          "client_id": "547746501062-fgil4cgue32ejq3r4b1l20fgogpve3pl.apps.googleusercontent.com",
          "client_type": 3
        }
      ],
      "api_key": [
        {
          "current_key": "AIzaSyDh_odoejkr5TC94lGJ0OeqcM0C3qKCinc"
        }
      ],
      "services": {
        "appinvite_service": {
          "other_platform_oauth_client": [
            {
              "client_id": "547746501062-fgil4cgue32ejq3r4b1l20fgogpve3pl.apps.googleusercontent.com",
              "client_type": 3
            }
          ]
        }
      }
    },
    {
      "client_info": {
        "mobilesdk_app_id": "1:547746501062:android:c066dd339b10c78a",
        "android_client_info": {
          "package_name": "com.pakupaku.outlet"
        }
      },
      "oauth_client": [
        {
          "client_id": "547746501062-0c2k05ge3a7uh0ud0qp93m391tr04u5k.apps.googleusercontent.com",
          "client_type": 1,
          "android_info": {
            "package_name": "com.pakupaku.outlet",
            "certificate_hash": "558ac69ee68267c39c99dd909dcb8ee76f7fe2f2"
          }
        },
        {
          "client_id": "547746501062-ivrbb6c1i2j323mj3rermbkntptn8lf2.apps.googleusercontent.com",
          "client_type": 1,
          "android_info": {
            "package_name": "com.pakupaku.outlet",
            "certificate_hash": "8cf37960e11bc0f20d54fc52f14aae89f6bf6937"
          }
        },
        {
          "client_id": "547746501062-r4e3j29h4sg130nml5vuimonjlapcc67.apps.googleusercontent.com",
          "client_type": 1,
          "android_info": {
            "package_name": "com.pakupaku.outlet",
            "certificate_hash": "bfc5cfc24e1ba6730b73875c498453c7ce6c244b"
          }
        },
        {
          "client_id": "547746501062-fgil4cgue32ejq3r4b1l20fgogpve3pl.apps.googleusercontent.com",
          "client_type": 3
        }
      ],
      "api_key": [
        {
          "current_key": "AIzaSyDh_odoejkr5TC94lGJ0OeqcM0C3qKCinc"
        }
      ],
      "services": {
        "appinvite_service": {
          "other_platform_oauth_client": [
            {
              "client_id": "547746501062-fgil4cgue32ejq3r4b1l20fgogpve3pl.apps.googleusercontent.com",
              "client_type": 3
            }
          ]
        }
      }
    },
    {
      "client_info": {
        "mobilesdk_app_id": "1:547746501062:android:669df9e8102be25d8022c7",
        "android_client_info": {
          "package_name": "com.pakupaku.owner"
        }
      },
      "oauth_client": [
        {
          "client_id": "547746501062-9gdlog00dn9b15qrtte9odetf1vb40lj.apps.googleusercontent.com",
          "client_type": 1,
          "android_info": {
            "package_name": "com.pakupaku.owner",
            "certificate_hash": "d9bd6cb9e634ab83d481aa6b4ffa9d82226d0f82"
          }
        },
        {
          "client_id": "547746501062-fgil4cgue32ejq3r4b1l20fgogpve3pl.apps.googleusercontent.com",
          "client_type": 3
        }
      ],
      "api_key": [
        {
          "current_key": "AIzaSyDh_odoejkr5TC94lGJ0OeqcM0C3qKCinc"
        }
      ],
      "services": {
        "appinvite_service": {
          "other_platform_oauth_client": [
            {
              "client_id": "547746501062-fgil4cgue32ejq3r4b1l20fgogpve3pl.apps.googleusercontent.com",
              "client_type": 3
            }
          ]
        }
      }
    },
    {
      "client_info": {
        "mobilesdk_app_id": "1:547746501062:android:916d92a59849709a",
        "android_client_info": {
          "package_name": "com.pakupaku.user"
        }
      },
      "oauth_client": [
        {
          "client_id": "547746501062-m0fffsi823efenmue7ulvidll0vepu6o.apps.googleusercontent.com",
          "client_type": 1,
          "android_info": {
            "package_name": "com.pakupaku.user",
            "certificate_hash": "8cf37960e11bc0f20d54fc52f14aae89f6bf6937"
          }
        },
        {
          "client_id": "547746501062-enqb9gsuadkj5bomndbla9m95d65g258.apps.googleusercontent.com",
          "client_type": 1,
          "android_info": {
            "package_name": "com.pakupaku.user",
            "certificate_hash": "ba31de39e551f1add8a9b2861348fd6de36e0e0d"
          }
        },
        {
          "client_id": "547746501062-6ud82uduva31pfkeiu57ha8dfdrgj0eh.apps.googleusercontent.com",
          "client_type": 1,
          "android_info": {
            "package_name": "com.pakupaku.user",
            "certificate_hash": "2c4d991b9ab437d97503bd581e638172ca0fc0a4"
          }
        },
        {
          "client_id": "547746501062-17grbqsrd659iso4268huk3dc4dafocc.apps.googleusercontent.com",
          "client_type": 1,
          "android_info": {
            "package_name": "com.pakupaku.user",
            "certificate_hash": "bfc5cfc24e1ba6730b73875c498453c7ce6c244b"
          }
        },
        {
          "client_id": "547746501062-fgil4cgue32ejq3r4b1l20fgogpve3pl.apps.googleusercontent.com",
          "client_type": 3
        }
      ],
      "api_key": [
        {
          "current_key": "AIzaSyDh_odoejkr5TC94lGJ0OeqcM0C3qKCinc"
        }
      ],
      "services": {
        "appinvite_service": {
          "other_platform_oauth_client": [
            {
              "client_id": "547746501062-fgil4cgue32ejq3r4b1l20fgogpve3pl.apps.googleusercontent.com",
              "client_type": 3
            }
          ]
        }
      }
    }
  ],
  "configuration_version": "1"
}